Introduction to Machine Learning with tidymodels
…
Why tidymodels? Completeness

Built-in support for 99 machine learning models!

#> # A tibble: 99 × 2
#>    name       engine   
#>    <chr>      <chr>    
#>  1 boost_tree C5.0     
#>  2 boost_tree h2o      
#>  3 boost_tree h2o_gbm  
#>  4 boost_tree lightgbm 
#>  5 boost_tree mboost   
#>  6 boost_tree spark    
#>  7 boost_tree xgboost  
#>  8 null_model parsnip  
#>  9 svm_linear LiblineaR
#> 10 svm_linear kernlab  
#> # ℹ 89 more rows

Why tidymodels? Completeness

Built-in support for 102 data pre-processing techniques!

#> # A tibble: 102 × 1
#>    name                   
#>    <chr>                  
#>  1 step_bagimpute         
#>  2 step_classdist_shrunken
#>  3 step_impute_mode       
#>  4 add_step               
#>  5 step                   
#>  6 print_step             
#>  7 step_dummy             
#>  8 step_window            
#>  9 step_nnmf              
#> 10 step_intercept         
#> # ℹ 92 more rows
…
delivery_train <- training(delivery_split)
delivery_test  <- testing(delivery_split)
delivery_val   <- validation(delivery_split)

(TMwR)

A linear model

mod_spec <- linear_reg()
mod_fit <- mod_spec %>% fit(time_to_delivery ~ ., data = delivery_train)

tidy(mod_fit)
#> # A tibble: 36 × 5
#>    term        estimate std.error statistic   p.value
#>    <chr>          <dbl>     <dbl>     <dbl>     <dbl>
#>  1 (Intercept)   -18.4     0.372     -49.4  0        
#>  2 hour            1.78    0.0169    105.   0        
#>  3 dayTue          1.02    0.254       4.02 5.77e-  5
#>  4 dayWed          3.46    0.230      15.1  9.52e- 51
#>  5 dayThu          5.04    0.225      22.4  9.71e-108
#>  6 dayFri          6.98    0.220      31.7  1.49e-207
#>  7 daySat          7.82    0.219      35.7  2.81e-259
#>  8 daySun          3.53    0.229      15.4  5.15e- 53
#>  9 distance        2.78    0.0414     67.0  0        
#> 10 item_01         1.61    0.140      11.5  2.13e- 30
#> # ℹ 26 more rows
…
We need recipes! 🧁

Recipes are sequential operations for feature engineering.

(TMwR)

Initializing the recipe

food_rec <- recipe(time_to_delivery ~ ., data = delivery_train)
food_rec

This first call just catalogs the data.

summary(food_rec)
#> # A tibble: 31 × 4
#>    variable type      role      source  
#>    <chr>    <list>    <chr>     <chr>   
#>  1 hour     <chr [2]> predictor original
#>  2 day      <chr [3]> predictor original
#>  3 distance <chr [2]> predictor original
#>  4 item_01  <chr [2]> predictor original
#>  5 item_02  <chr [2]> predictor original
#>  6 item_03  <chr [2]> predictor original
#>  7 item_04  <chr [2]> predictor original
#>  8 item_05  <chr [2]> predictor original
#>  9 item_06  <chr [2]> predictor original
#> 10 item_07  <chr [2]> predictor original
#> # ℹ 21 more rows
…
Combining a model and a recipe

lm_fit <- fit(lm_wflow, data = delivery_train)

tidy(lm_fit) %>% arrange(term)
#> # A tibble: 74 × 5
#>    term        estimate std.error statistic  p.value
#>    <chr>          <dbl>     <dbl>     <dbl>    <dbl>
#>  1 (Intercept)   12.5       0.834    14.9   8.35e-50
#>  2 day_Fri       -4.62      0.867    -5.33  9.89e- 8
#>  3 day_Sat       -4.59      0.857    -5.35  9.02e- 8
#>  4 day_Sun       -3.12      0.904    -3.45  5.62e- 4
#>  5 day_Thu       -3.54      0.912    -3.88  1.05e- 4
#>  6 day_Tue       -0.509     1.01     -0.505 6.13e- 1
#>  7 day_Wed       -2.83      0.895    -3.17  1.54e- 3
#>  8 distance_1     1.39      0.460     3.03  2.46e- 3
#>  9 distance_2     1.53      0.220     6.94  4.36e-12
#> 10 distance_3     2.67      0.259    10.3   9.43e-25
#> # ℹ 64 more rows
…
